{
    "servers": {
	"alarm-handler-srv/0": {
	   "AlarmHandler": {
	       "mid-csp/alarm/0":{
		  "properties":{
		    "GroupNames": ["none"]
		  },
		  "attribute_properties" : {
		  }
	       }

	      }
	}
    }
}
